p1/alu.vcd
$date
	Wed Nov 11 09:35:17 2020
$end
$version
	Icarus Verilog
$end
$timescale
	10ps
$end
$scope module alu_tb $end
$var wire 1 ! t_z $end
$var wire 1 " t_s $end
$var wire 1 # t_c $end
$var wire 4 $ t_R [3:0] $end
$var reg 4 % t_A [3:0] $end
$var reg 4 & t_B [3:0] $end
$var reg 1 ' t_L $end
$var reg 2 ( t_Op [1:0] $end
$var integer 32 ) errores [31:0] $end
$scope module mat $end
$var wire 4 * A [3:0] $end
$var wire 2 + ALUOp [1:0] $end
$var wire 4 , B [3:0] $end
$var wire 1 ' L $end
$var wire 1 - cin $end
$var wire 1 . cpl $end
$var wire 1 / op1_A $end
$var wire 1 0 op2_B $end
$var wire 1 ! zero $end
$var wire 4 1 wire_compl1 [3:0] $end
$var wire 1 " sign $end
$var wire 4 2 cout [3:0] $end
$var wire 1 # carry $end
$var wire 4 3 R [3:0] $end
$var wire 4 4 OP2 [3:0] $end
$var wire 4 5 OP1 [3:0] $end
$scope module cal0 $end
$var wire 1 6 a $end
$var wire 1 7 b $end
$var wire 1 - c_in $end
$var wire 1 ' l $end
$var wire 2 8 s [1:0] $end
$var wire 1 9 out_fa $end
$var wire 1 : out_cl $end
$var wire 1 ; out $end
$var wire 1 < c_out $end
$scope module cl1 $end
$var wire 1 6 a $end
$var wire 1 7 b $end
$var wire 2 = s [1:0] $end
$var wire 1 > sa $end
$var wire 1 ? sn $end
$var wire 1 @ so $end
$var wire 1 A sx $end
$var wire 1 : out $end
$scope module mux1 $end
$var wire 1 > a $end
$var wire 1 @ b $end
$var wire 1 A c $end
$var wire 1 ? d $end
$var wire 2 B s [1:0] $end
$var reg 1 : out $end
$upscope $end
$upscope $end
$scope module fa1 $end
$var wire 1 6 a $end
$var wire 1 7 b $end
$var wire 1 - cin $end
$var wire 1 9 sum $end
$var wire 1 < cout $end
$upscope $end
$scope module mux2 $end
$var wire 1 9 a $end
$var wire 1 : b $end
$var wire 1 ' s $end
$var wire 1 ; out $end
$upscope $end
$upscope $end
$scope module cal1 $end
$var wire 1 C a $end
$var wire 1 D b $end
$var wire 1 E c_in $end
$var wire 1 ' l $end
$var wire 2 F s [1:0] $end
$var wire 1 G out_fa $end
$var wire 1 H out_cl $end
$var wire 1 I out $end
$var wire 1 J c_out $end
$scope module cl1 $end
$var wire 1 C a $end
$var wire 1 D b $end
$var wire 2 K s [1:0] $end
$var wire 1 L sa $end
$var wire 1 M sn $end
$var wire 1 N so $end
$var wire 1 O sx $end
$var wire 1 H out $end
$scope module mux1 $end
$var wire 1 L a $end
$var wire 1 N b $end
$var wire 1 O c $end
$var wire 1 M d $end
$var wire 2 P s [1:0] $end
$var reg 1 H out $end
$upscope $end
$upscope $end
$scope module fa1 $end
$var wire 1 C a $end
$var wire 1 D b $end
$var wire 1 E cin $end
$var wire 1 G sum $end
$var wire 1 J cout $end
$upscope $end
$scope module mux2 $end
$var wire 1 G a $end
$var wire 1 H b $end
$var wire 1 ' s $end
$var wire 1 I out $end
$upscope $end
$upscope $end
$scope module cal2 $end
$var wire 1 Q a $end
$var wire 1 R b $end
$var wire 1 S c_in $end
$var wire 1 ' l $end
$var wire 2 T s [1:0] $end
$var wire 1 U out_fa $end
$var wire 1 V out_cl $end
$var wire 1 W out $end
$var wire 1 X c_out $end
$scope module cl1 $end
$var wire 1 Q a $end
$var wire 1 R b $end
$var wire 2 Y s [1:0] $end
$var wire 1 Z sa $end
$var wire 1 [ sn $end
$var wire 1 \ so $end
$var wire 1 ] sx $end
$var wire 1 V out $end
$scope module mux1 $end
$var wire 1 Z a $end
$var wire 1 \ b $end
$var wire 1 ] c $end
$var wire 1 [ d $end
$var wire 2 ^ s [1:0] $end
$var reg 1 V out $end
$upscope $end
$upscope $end
$scope module fa1 $end
$var wire 1 Q a $end
$var wire 1 R b $end
$var wire 1 S cin $end
$var wire 1 U sum $end
$var wire 1 X cout $end
$upscope $end
$scope module mux2 $end
$var wire 1 U a $end
$var wire 1 V b $end
$var wire 1 ' s $end
$var wire 1 W out $end
$upscope $end
$upscope $end
$scope module cal3 $end
$var wire 1 _ a $end
$var wire 1 ` b $end
$var wire 1 a c_in $end
$var wire 1 ' l $end
$var wire 2 b s [1:0] $end
$var wire 1 c out_fa $end
$var wire 1 d out_cl $end
$var wire 1 e out $end
$var wire 1 f c_out $end
$scope module cl1 $end
$var wire 1 _ a $end
$var wire 1 ` b $end
$var wire 2 g s [1:0] $end
$var wire 1 h sa $end
$var wire 1 i sn $end
$var wire 1 j so $end
$var wire 1 k sx $end
$var wire 1 d out $end
$scope module mux1 $end
$var wire 1 h a $end
$var wire 1 j b $end
$var wire 1 k c $end
$var wire 1 i d $end
$var wire 2 l s [1:0] $end
$var reg 1 d out $end
$upscope $end
$upscope $end
$scope module fa1 $end
$var wire 1 _ a $end
$var wire 1 ` b $end
$var wire 1 a cin $end
$var wire 1 c sum $end
$var wire 1 f cout $end
$upscope $end
$scope module mux2 $end
$var wire 1 c a $end
$var wire 1 d b $end
$var wire 1 ' s $end
$var wire 1 e out $end
$upscope $end
$upscope $end
$scope module compl1_alu $end
$var wire 1 . cpl $end
$var wire 4 m Sal [3:0] $end
$var wire 4 n Ent [3:0] $end
$upscope $end
$scope module mux_Alu1 $end
$var wire 4 o a [3:0] $end
$var wire 4 p b [3:0] $end
$var wire 1 / s $end
$var wire 4 q out [3:0] $end
$upscope $end
$scope module mux_Alu2 $end
$var wire 4 r a [3:0] $end
$var wire 4 s b [3:0] $end
$var wire 1 0 s $end
$var wire 4 t out [3:0] $end
$upscope $end
$upscope $end
$scope task check $end
$var reg 1 u flag_carry $end
$var reg 1 v flag_sign $end
$var reg 1 w flag_zero $end
$var reg 5 x result [4:0] $end
$upscope $end
$upscope $end
$enddefinitions $end
#0
$dumpvars
bx x
xw
xv
xu
b0 t
b0 s
b0 r
b0 q
b0 p
b0 o
b0 n
b1111 m
b0 l
1k
1j
1i
0h
b0 g
1f
0e
0d
0c
b0 b
1a
1`
0_
b0 ^
1]
1\
1[
0Z
b0 Y
1X
0W
0V
0U
b0 T
1S
1R
0Q
b0 P
1O
1N
1M
0L
b0 K
1J
0I
0H
0G
b0 F
1E
1D
0C
b0 B
1A
1@
1?
0>
b0 =
1<
0;
0:
09
b0 8
17
06
b0 5
b1111 4
b0 3
b1111 2
b0 1
10
0/
1.
1-
b0 ,
b0 +
b0 *
b0 )
b0 (
0'
b0 &
b0 %
b0 $
1#
0"
1!
$end
#200
1"
1e
0#
0!
1c
0f
1W
0a
1U
0X
1I
0S
1G
0J
b1111 $
b1111 3
1;
0E
0@
0A
19
b0 2
0<
07
b1110 4
b1110 m
b1 1
b1 n
b1 t
b1 &
b1 ,
b1 s
1w
0v
1u
b10000 x
#400
1I
b1110 $
b1110 3
0;
1E
0N
0O
1G
1@
1A
09
b1 2
1<
0D
17
b1101 4
b1101 m
b10 1
b10 n
b10 t
b10 &
b10 ,
b10 s
0w
1v
0u
b1111 x
#600
0I
0G
b1101 $
b1101 3
1;
0E
0@
0A
19
b0 2
0<
07
b1100 4
b1100 m
b11 1
b11 n
b11 t
b11 &
b11 ,
b11 s
b1110 x
#800
1S
1J
1W
0I
b1100 $
b1100 3
0;
1E
0\
0]
1U
1N
1O
0G
1@
1A
09
b11 2
1<
0R
1D
17
b1011 4
b1011 m
b100 1
b100 n
b100 t
b100 &
b100 ,
b100 s
b1101 x
#1000
0W
0U
1I
0S
1G
0J
b1011 $
b1011 3
1;
0E
0@
0A
19
b0 2
0<
07
b1010 4
b1010 m
b101 1
b101 n
b101 t
b101 &
b101 ,
b101 s
b1100 x
#1200
1I
b1010 $
b1010 3
0;
1E
0N
0O
1G
1@
1A
09
b1 2
1<
0D
17
b1001 4
b1001 m
b110 1
b110 n
b110 t
b110 &
b110 ,
b110 s
b1011 x
#1400
0I
0G
b1001 $
b1001 3
1;
0E
0@
0A
19
b0 2
0<
07
b1000 4
b1000 m
b111 1
b111 n
b111 t
b111 &
b111 ,
b111 s
b1010 x
#1600
0!
1a
1X
1S
1"
1J
1e
0W
0I
b1000 $
b1000 3
0;
1E
0j
0k
1c
1\
1]
0U
1N
1O
0G
1@
1A
09
b111 2
1<
0`
1R
1D
17
b111 4
b111 m
b1000 1
b1000 n
b1000 t
b1000 &
b1000 ,
b1000 s
b1001 x
#1800
0"
0e
0c
1W
0a
1U
0X
1I
0S
1G
0J
b111 $
b111 3
1;
0E
0@
0A
19
b0 2
0<
07
b110 4
b110 m
b1001 1
b1001 n
b1001 t
b1001 &
b1001 ,
b1001 s
b1000 x
#2000
1I
b110 $
b110 3
0;
1E
0N
0O
1G
1@
1A
09
b1 2
1<
0D
17
b101 4
b101 m
b1010 1
b1010 n
b1010 t
b1010 &
b1010 ,
b1010 s
0v
b111 x
#2200
0I
0G
b101 $
b101 3
1;
0E
0@
0A
19
b0 2
0<
07
b100 4
b100 m
b1011 1
b1011 n
b1011 t
b1011 &
b1011 ,
b1011 s
b110 x
#2400
1S
1J
1W
0I
b100 $
b100 3
0;
1E
0\
0]
1U
1N
1O
0G
1@
1A
09
b11 2
1<
0R
1D
17
b11 4
b11 m
b1100 1
b1100 n
b1100 t
b1100 &
b1100 ,
b1100 s
b101 x
#2600
0W
0U
1I
0S
1G
0J
b11 $
b11 3
1;
0E
0@
0A
19
b0 2
0<
07
b10 4
b10 m
b1101 1
b1101 n
b1101 t
b1101 &
b1101 ,
b1101 s
b100 x
#2800
0!
1I
b10 $
b10 3
0;
1E
0N
0O
1G
1@
1A
09
b1 2
1<
0D
17
b1 4
b1 m
b1110 1
b1110 n
b1110 t
b1110 &
b1110 ,
b1110 s
b11 x
#3000
0I
0G
b1 $
b1 3
1;
0E
0@
0A
19
b0 2
0<
07
b0 4
b0 m
b1111 1
b1111 n
b1111 t
b1111 &
b1111 ,
b1111 s
b10 x
#3200
1!
1#
1f
1a
1X
1S
0"
1J
0e
0W
0I
b0 $
b0 3
0;
1E
1j
1k
0c
1\
1]
0U
1N
1O
0G
1@
1A
09
b1111 2
1<
1`
1R
1D
17
b1111 4
b1111 m
b0 1
b0 n
b0 t
b1 %
b1 *
b1 p
b1 r
b0 &
b0 ,
b0 s
b1 x
#3400
1"
1e
0#
0!
1c
0f
1W
0a
1U
0X
1I
0S
1G
0J
b1111 $
b1111 3
1;
0E
0@
0A
19
b0 2
0<
07
b1110 4
b1110 m
b1 1
b1 n
b1 t
b1 &
b1 ,
b1 s
1w
1u
b10000 x
#3600
1I
b1110 $
b1110 3
0;
1E
0N
0O
1G
1@
1A
09
b1 2
1<
0D
17
b1101 4
b1101 m
b10 1
b10 n
b10 t
b10 &
b10 ,
b10 s
0w
1v
0u
b1111 x
#3800
0I
0G
b1101 $
b1101 3
1;
0E
0@
0A
19
b0 2
0<
07
b1100 4
b1100 m
b11 1
b11 n
b11 t
b11 &
b11 ,
b11 s
b1110 x
#4000
1S
1J
1W
0I
b1100 $
b1100 3
0;
1E
0\
0]
1U
1N
1O
0G
1@
1A
09
b11 2
1<
0R
1D
17
b1011 4
b1011 m
b100 1
b100 n
b100 t
b100 &
b100 ,
b100 s
b1101 x
#4200
0W
0U
1I
0S
1G
0J
b1011 $
b1011 3
1;
0E
0@
0A
19
b0 2
0<
07
b1010 4
b1010 m
b101 1
b101 n
b101 t
b101 &
b101 ,
b101 s
b1100 x
#4400
1I
b1010 $
b1010 3
0;
1E
0N
0O
1G
1@
1A
09
b1 2
1<
0D
17
b1001 4
b1001 m
b110 1
b110 n
b110 t
b110 &
b110 ,
b110 s
b1011 x
#4600
0I
0G
b1001 $
b1001 3
1;
0E
0@
0A
19
b0 2
0<
07
b1000 4
b1000 m
b111 1
b111 n
b111 t
b111 &
b111 ,
b111 s
b1010 x
#4800
0!
1a
1X
1S
1"
1J
1e
0W
0I
b1000 $
b1000 3
0;
1E
0j
0k
1c
1\
1]
0U
1N
1O
0G
1@
1A
09
b111 2
1<
0`
1R
1D
17
b111 4
b111 m
b1000 1
b1000 n
b1000 t
b1000 &
b1000 ,
b1000 s
b1001 x
#5000
0"
0e
0c
1W
0a
1U
0X
1I
0S
1G
0J
b111 $
b111 3
1;
0E
0@
0A
19
b0 2
0<
07
b110 4
b110 m
b1001 1
b1001 n
b1001 t
b1001 &
b1001 ,
b1001 s
b1000 x
#5200
1I
b110 $
b110 3
0;
1E
0N
0O
1G
1@
1A
09
b1 2
1<
0D
17
b101 4
b101 m
b1010 1
b1010 n
b1010 t
b1010 &
b1010 ,
b1010 s
0v
b111 x
#5400
0I
0G
b101 $
b101 3
1;
0E
0@
0A
19
b0 2
0<
07
b100 4
b100 m
b1011 1
b1011 n
b1011 t
b1011 &
b1011 ,
b1011 s
b110 x
#5600
1S
1J
1W
0I
b100 $
b100 3
0;
1E
0\
0]
1U
1N
1O
0G
1@
1A
09
b11 2
1<
0R
1D
17
b11 4
b11 m
b1100 1
b1100 n
b1100 t
b1100 &
b1100 ,
b1100 s
b101 x
#5800
0W
0U
1I
0S
1G
0J
b11 $
b11 3
1;
0E
0@
0A
19
b0 2
0<
07
b10 4
b10 m
b1101 1
b1101 n
b1101 t
b1101 &
b1101 ,
b1101 s
b100 x
#6000
0!
1I
b10 $
b10 3
0;
1E
0N
0O
1G
1@
1A
09
b1 2
1<
0D
17
b1 4
b1 m
b1110 1
b1110 n
b1110 t
b1110 &
b1110 ,
b1110 s
b11 x
#6200
0I
0G
b1 $
b1 3
1;
0E
0@
0A
19
b0 2
0<
07
b0 4
b0 m
b1111 1
b1111 n
b1111 t
b1111 &
b1111 ,
b1111 s
b10 x
#6400
1!
1#
1f
1a
1X
1S
0"
1J
0e
0W
0I
b0 $
b0 3
0;
1E
1j
1k
0c
1\
1]
0U
1N
1O
0G
1@
1A
09
b1111 2
1<
1`
1R
1D
17
b1111 4
b1111 m
b0 1
b0 n
b0 t
b10 %
b10 *
b10 p
b10 r
b0 &
b0 ,
b0 s
b1 x
#6600
1"
1e
0#
0!
1c
0f
1W
0a
1U
0X
1I
0S
1G
0J
b1111 $
b1111 3
1;
0E
0@
0A
19
b0 2
0<
07
b1110 4
b1110 m
b1 1
b1 n
b1 t
b1 &
b1 ,
b1 s
1w
1u
b10000 x
#6800
1I
b1110 $
b1110 3
0;
1E
0N
0O
1G
1@
1A
09
b1 2
1<
0D
17
b1101 4
b1101 m
b10 1
b10 n
b10 t
b10 &
b10 ,
b10 s
0w
1v
0u
b1111 x
#7000
0I
0G
b1101 $
b1101 3
1;
0E
0@
0A
19
b0 2
0<
07
b1100 4
b1100 m
b11 1
b11 n
b11 t
b11 &
b11 ,
b11 s
b1110 x
#7200
1S
1J
1W
0I
b1100 $
b1100 3
0;
1E
0\
0]
1U
1N
1O
0G
1@
1A
09
b11 2
1<
0R
1D
17
b1011 4
b1011 m
b100 1
b100 n
b100 t
b100 &
b100 ,
b100 s
b1101 x
#7400
0W
0U
1I
0S
1G
0J
b1011 $
b1011 3
1;
0E
0@
0A
19
b0 2
0<
07
b1010 4
b1010 m
b101 1
b101 n
b101 t
b101 &
b101 ,
b101 s
b1100 x
#7600
1I
b1010 $
b1010 3
0;
1E
0N
0O
1G
1@
1A
09
b1 2
1<
0D
17
b1001 4
b1001 m
b110 1
b110 n
b110 t
b110 &
b110 ,
b110 s
b1011 x
#7800
0I
0G
b1001 $
b1001 3
1;
0E
0@
0A
19
b0 2
0<
07
b1000 4
b1000 m
b111 1
b111 n
b111 t
b111 &
b111 ,
b111 s
b1010 x
#8000
0!
1a
1X
1S
1"
1J
1e
0W
0I
b1000 $
b1000 3
0;
1E
0j
0k
1c
1\
1]
0U
1N
1O
0G
1@
1A
09
b111 2
1<
0`
1R
1D
17
b111 4
b111 m
b1000 1
b1000 n
b1000 t
b1000 &
b1000 ,
b1000 s
b1001 x
#8200
0"
0e
0c
1W
0a
1U
0X
1I
0S
1G
0J
b111 $
b111 3
1;
0E
0@
0A
19
b0 2
0<
07
b110 4
b110 m
b1001 1
b1001 n
b1001 t
b1001 &
b1001 ,
b1001 s
b1000 x
#8400
1I
b110 $
b110 3
0;
1E
0N
0O
1G
1@
1A
09
b1 2
1<
0D
17
b101 4
b101 m
b1010 1
b1010 n
b1010 t
b1010 &
b1010 ,
b1010 s
0v
b111 x
#8600
0I
0G
b101 $
b101 3
1;
0E
0@
0A
19
b0 2
0<
07
b100 4
b100 m
b1011 1
b1011 n
b1011 t
b1011 &
b1011 ,
b1011 s
b110 x
#8800
1S
1J
1W
0I
b100 $
b100 3
0;
1E
0\
0]
1U
1N
1O
0G
1@
1A
09
b11 2
1<
0R
1D
17
b11 4
b11 m
b1100 1
b1100 n
b1100 t
b1100 &
b1100 ,
b1100 s
b101 x
#9000
0W
0U
1I
0S
1G
0J
b11 $
b11 3
1;
0E
0@
0A
19
b0 2
0<
07
b10 4
b10 m
b1101 1
b1101 n
b1101 t
b1101 &
b1101 ,
b1101 s
b100 x
#9200
0!
1I
b10 $
b10 3
0;
1E
0N
0O
1G
1@
1A
09
b1 2
1<
0D
17
b1 4
b1 m
b1110 1
b1110 n
b1110 t
b1110 &
b1110 ,
b1110 s
b11 x
#9400
0I
0G
b1 $
b1 3
1;
0E
0@
0A
19
b0 2
0<
07
b0 4
b0 m
b1111 1
b1111 n
b1111 t
b1111 &
b1111 ,
b1111 s
b10 x
#9600
1!
1#
1f
1a
1X
1S
0"
1J
0e
0W
0I
b0 $
b0 3
0;
1E
1j
1k
0c
1\
1]
0U
1N
1O
0G
1@
1A
09
b1111 2
1<
1`
1R
1D
17
b1111 4
b1111 m
b0 1
b0 n
b0 t
b11 %
b11 *
b11 p
b11 r
b0 &
b0 ,
b0 s
b1 x
#9800
1"
1e
0#
0!
1c
0f
1W
0a
1U
0X
1I
0S
1G
0J
b1111 $
b1111 3
1;
0E
0@
0A
19
b0 2
0<
07
b1110 4
b1110 m
b1 1
b1 n
b1 t
b1 &
b1 ,
b1 s
1w
1u
b10000 x
#10000
1I
b1110 $
b1110 3
0;
1E
0N
0O
1G
1@
1A
09
b1 2
1<
0D
17
b1101 4
b1101 m
b10 1
b10 n
b10 t
b10 &
b10 ,
b10 s
0w
1v
0u
b1111 x
#10200
0I
0G
b1101 $
b1101 3
1;
0E
0@
0A
19
b0 2
0<
07
b1100 4
b1100 m
b11 1
b11 n
b11 t
b11 &
b11 ,
b11 s
b1110 x
#10400
1S
1J
1W
0I
b1100 $
b1100 3
0;
1E
0\
0]
1U
1N
1O
0G
1@
1A
09
b11 2
1<
0R
1D
17
b1011 4
b1011 m
b100 1
b100 n
b100 t
b100 &
b100 ,
b100 s
b1101 x
#10600
0W
0U
1I
0S
1G
0J
b1011 $
b1011 3
1;
0E
0@
0A
19
b0 2
0<
07
b1010 4
b1010 m
b101 1
b101 n
b101 t
b101 &
b101 ,
b101 s
b1100 x
#10800
1I
b1010 $
b1010 3
0;
1E
0N
0O
1G
1@
1A
09
b1 2
1<
0D
17
b1001 4
b1001 m
b110 1
b110 n
b110 t
b110 &
b110 ,
b110 s
b1011 x
#11000
0I
0G
b1001 $
b1001 3
1;
0E
0@
0A
19
b0 2
0<
07
b1000 4
b1000 m
b111 1
b111 n
b111 t
b111 &
b111 ,
b111 s
b1010 x
#11200
0!
1a
1X
1S
1"
1J
1e
0W
0I
b1000 $
b1000 3
0;
1E
0j
0k
1c
1\
1]
0U
1N
1O
0G
1@
1A
09
b111 2
1<
0`
1R
1D
17
b111 4
b111 m
b1000 1
b1000 n
b1000 t
b1000 &
b1000 ,
b1000 s
b1001 x
#11400
0"
0e
0c
1W
0a
1U
0X
1I
0S
1G
0J
b111 $
b111 3
1;
0E
0@
0A
19
b0 2
0<
07
b110 4
b110 m
b1001 1
b1001 n
b1001 t
b1001 &
b1001 ,
b1001 s
b1000 x
#11600
1I
b110 $
b110 3
0;
1E
0N
0O
1G
1@
1A
09
b1 2
1<
0D
17
b101 4
b101 m
b1010 1
b1010 n
b1010 t
b1010 &
b1010 ,
b1010 s
0v
b111 x
#11800
0I
0G
b101 $
b101 3
1;
0E
0@
0A
19
b0 2
0<
07
b100 4
b100 m
b1011 1
b1011 n
b1011 t
b1011 &
b1011 ,
b1011 s
b110 x
#12000
1S
1J
1W
0I
b100 $
b100 3
0;
1E
0\
0]
1U
1N
1O
0G
1@
1A
09
b11 2
1<
0R
1D
17
b11 4
b11 m
b1100 1
b1100 n
b1100 t
b1100 &
b1100 ,
b1100 s
b101 x
#12200
0W
0U
1I
0S
1G
0J
b11 $
b11 3
1;
0E
0@
0A
19
b0 2
0<
07
b10 4
b10 m
b1101 1
b1101 n
b1101 t
b1101 &
b1101 ,
b1101 s
b100 x
#12400
0!
1I
b10 $
b10 3
0;
1E
0N
0O
1G
1@
1A
09
b1 2
1<
0D
17
b1 4
b1 m
b1110 1
b1110 n
b1110 t
b1110 &
b1110 ,
b1110 s
b11 x
#12600
0I
0G
b1 $
b1 3
1;
0E
0@
0A
19
b0 2
0<
07
b0 4
b0 m
b1111 1
b1111 n
b1111 t
b1111 &
b1111 ,
b1111 s
b10 x
#12800
1!
1#
1f
1a
1X
1S
0"
1J
0e
0W
0I
b0 $
b0 3
0;
1E
1j
1k
0c
1\
1]
0U
1N
1O
0G
1@
1A
09
b1111 2
1<
1`
1R
1D
17
b1111 4
b1111 m
b0 1
b0 n
b0 t
b100 %
b100 *
b100 p
b100 r
b0 &
b0 ,
b0 s
b1 x
#13000
1"
1e
0#
0!
1c
0f
1W
0a
1U
0X
1I
0S
1G
0J
b1111 $
b1111 3
1;
0E
0@
0A
19
b0 2
0<
07
b1110 4
b1110 m
b1 1
b1 n
b1 t
b1 &
b1 ,
b1 s
1w
1u
b10000 x
#13200
1I
b1110 $
b1110 3
0;
1E
0N
0O
1G
1@
1A
09
b1 2
1<
0D
17
b1101 4
b1101 m
b10 1
b10 n
b10 t
b10 &
b10 ,
b10 s
0w
1v
0u
b1111 x
#13400
0I
0G
b1101 $
b1101 3
1;
0E
0@
0A
19
b0 2
0<
07
b1100 4
b1100 m
b11 1
b11 n
b11 t
b11 &
b11 ,
b11 s
b1110 x
#13600
1S
1J
1W
0I
b1100 $
b1100 3
0;
1E
0\
0]
1U
1N
1O
0G
1@
1A
09
b11 2
1<
0R
1D
17
b1011 4
b1011 m
b100 1
b100 n
b100 t
b100 &
b100 ,
b100 s
b1101 x
#13800
0W
0U
1I
0S
1G
0J
b1011 $
b1011 3
1;
0E
0@
0A
19
b0 2
0<
07
b1010 4
b1010 m
b101 1
b101 n
b101 t
b101 &
b101 ,
b101 s
b1100 x
#14000
1I
b1010 $
b1010 3
0;
1E
0N
0O
1G
1@
1A
09
b1 2
1<
0D
17
b1001 4
b1001 m
b110 1
b110 n
b110 t
b110 &
b110 ,
b110 s
b1011 x
#14200
0I
0G
b1001 $
b1001 3
1;
0E
0@
0A
19
b0 2
0<
07
b1000 4
b1000 m
b111 1
b111 n
b111 t
b111 &
b111 ,
b111 s
b1010 x
#14400
0!
1a
1X
1S
1"
1J
1e
0W
0I
b1000 $
b1000 3
0;
1E
0j
0k
1c
1\
1]
0U
1N
1O
0G
1@
1A
09
b111 2
1<
0`
1R
1D
17
b111 4
b111 m
b1000 1
b1000 n
b1000 t
b1000 &
b1000 ,
b1000 s
b1001 x
#14600
0"
0e
0c
1W
0a
1U
0X
1I
0S
1G
0J
b111 $
b111 3
1;
0E
0@
0A
19
b0 2
0<
07
b110 4
b110 m
b1001 1
b1001 n
b1001 t
b1001 &
b1001 ,
b1001 s
b1000 x
#14800
1I
b110 $
b110 3
0;
1E
0N
0O
1G
1@
1A
09
b1 2
1<
0D
17
b101 4
b101 m
b1010 1
b1010 n
b1010 t
b1010 &
b1010 ,
b1010 s
0v
b111 x
#15000
0I
0G
b101 $
b101 3
1;
0E
0@
0A
19
b0 2
0<
07
b100 4
b100 m
b1011 1
b1011 n
b1011 t
b1011 &
b1011 ,
b1011 s
b110 x
#15200
1S
1J
1W
0I
b100 $
b100 3
0;
1E
0\
0]
1U
1N
1O
0G
1@
1A
09
b11 2
1<
0R
1D
17
b11 4
b11 m
b1100 1
b1100 n
b1100 t
b1100 &
b1100 ,
b1100 s
b101 x
#15400
0W
0U
1I
0S
1G
0J
b11 $
b11 3
1;
0E
0@
0A
19
b0 2
0<
07
b10 4
b10 m
b1101 1
b1101 n
b1101 t
b1101 &
b1101 ,
b1101 s
b100 x
#15600
0!
1I
b10 $
b10 3
0;
1E
0N
0O
1G
1@
1A
09
b1 2
1<
0D
17
b1 4
b1 m
b1110 1
b1110 n
b1110 t
b1110 &
b1110 ,
b1110 s
b11 x
#15800
0I
0G
b1 $
b1 3
1;
0E
0@
0A
19
b0 2
0<
07
b0 4
b0 m
b1111 1
b1111 n
b1111 t
b1111 &
b1111 ,
b1111 s
b10 x
#16000
1!
1#
1f
1a
1X
1S
0"
1J
0e
0W
0I
b0 $
b0 3
0;
1E
1j
1k
0c
1\
1]
0U
1N
1O
0G
1@
1A
09
b1111 2
1<
1`
1R
1D
17
b1111 4
b1111 m
b0 1
b0 n
b0 t
b101 %
b101 *
b101 p
b101 r
b0 &
b0 ,
b0 s
b1 x
#16200
1"
1e
0#
0!
1c
0f
1W
0a
1U
0X
1I
0S
1G
0J
b1111 $
b1111 3
1;
0E
0@
0A
19
b0 2
0<
07
b1110 4
b1110 m
b1 1
b1 n
b1 t
b1 &
b1 ,
b1 s
1w
1u
b10000 x
#16400
1I
b1110 $
b1110 3
0;
1E
0N
0O
1G
1@
1A
09
b1 2
1<
0D
17
b1101 4
b1101 m
b10 1
b10 n
b10 t
b10 &
b10 ,
b10 s
0w
1v
0u
b1111 x
#16600
0I
0G
b1101 $
b1101 3
1;
0E
0@
0A
19
b0 2
0<
07
b1100 4
b1100 m
b11 1
b11 n
b11 t
b11 &
b11 ,
b11 s
b1110 x
#16800
1S
1J
1W
0I
b1100 $
b1100 3
0;
1E
0\
0]
1U
1N
1O
0G
1@
1A
09
b11 2
1<
0R
1D
17
b1011 4
b1011 m
b100 1
b100 n
b100 t
b100 &
b100 ,
b100 s
b1101 x
#17000
0W
0U
1I
0S
1G
0J
b1011 $
b1011 3
1;
0E
0@
0A
19
b0 2
0<
07
b1010 4
b1010 m
b101 1
b101 n
b101 t
b101 &
b101 ,
b101 s
b1100 x
#17200
1I
b1010 $
b1010 3
0;
1E
0N
0O
1G
1@
1A
09
b1 2
1<
0D
17
b1001 4
b1001 m
b110 1
b110 n
b110 t
b110 &
b110 ,
b110 s
b1011 x
#17400
0I
0G
b1001 $
b1001 3
1;
0E
0@
0A
19
b0 2
0<
07
b1000 4
b1000 m
b111 1
b111 n
b111 t
b111 &
b111 ,
b111 s
b1010 x
#17600
0!
1a
1X
1S
1"
1J
1e
0W
0I
b1000 $
b1000 3
0;
1E
0j
0k
1c
1\
1]
0U
1N
1O
0G
1@
1A
09
b111 2
1<
0`
1R
1D
17
b111 4
b111 m
b1000 1
b1000 n
b1000 t
b1000 &
b1000 ,
b1000 s
b1001 x
#17800
0"
0e
0c
1W
0a
1U
0X
1I
0S
1G
0J
b111 $
b111 3
1;
0E
0@
0A
19
b0 2
0<
07
b110 4
b110 m
b1001 1
b1001 n
b1001 t
b1001 &
b1001 ,
b1001 s
b1000 x
#18000
1I
b110 $
b110 3
0;
1E
0N
0O
1G
1@
1A
09
b1 2
1<
0D
17
b101 4
b101 m
b1010 1
b1010 n
b1010 t
b1010 &
b1010 ,
b1010 s
0v
b111 x
#18200
0I
0G
b101 $
b101 3
1;
0E
0@
0A
19
b0 2
0<
07
b100 4
b100 m
b1011 1
b1011 n
b1011 t
b1011 &
b1011 ,
b1011 s
b110 x
#18400
1S
1J
1W
0I
b100 $
b100 3
0;
1E
0\
0]
1U
1N
1O
0G
1@
1A
09
b11 2
1<
0R
1D
17
b11 4
b11 m
b1100 1
b1100 n
b1100 t
b1100 &
b1100 ,
b1100 s
b101 x
#18600
0W
0U
1I
0S
1G
0J
b11 $
b11 3
1;
0E
0@
0A
19
b0 2
0<
07
b10 4
b10 m
b1101 1
b1101 n
b1101 t
b1101 &
b1101 ,
b1101 s
b100 x
#18800
0!
1I
b10 $
b10 3
0;
1E
0N
0O
1G
1@
1A
09
b1 2
1<
0D
17
b1 4
b1 m
b1110 1
b1110 n
b1110 t
b1110 &
b1110 ,
b1110 s
b11 x
#19000
0I
0G
b1 $
b1 3
1;
0E
0@
0A
19
b0 2
0<
07
b0 4
b0 m
b1111 1
b1111 n
b1111 t
b1111 &
b1111 ,
b1111 s
b10 x
#19200
1!
1#
1f
1a
1X
1S
0"
1J
0e
0W
0I
b0 $
b0 3
0;
1E
1j
1k
0c
1\
1]
0U
1N
1O
0G
1@
1A
09
b1111 2
1<
1`
1R
1D
17
b1111 4
b1111 m
b0 1
b0 n
b0 t
b110 %
b110 *
b110 p
b110 r
b0 &
b0 ,
b0 s
b1 x
#19400
1"
1e
0#
0!
1c
0f
1W
0a
1U
0X
1I
0S
1G
0J
b1111 $
b1111 3
1;
0E
0@
0A
19
b0 2
0<
07
b1110 4
b1110 m
b1 1
b1 n
b1 t
b1 &
b1 ,
b1 s
1w
1u
b10000 x
#19600
1I
b1110 $
b1110 3
0;
1E
0N
0O
1G
1@
1A
09
b1 2
1<
0D
17
b1101 4
b1101 m
b10 1
b10 n
b10 t
b10 &
b10 ,
b10 s
0w
1v
0u
b1111 x
#19800
0I
0G
b1101 $
b1101 3
1;
0E
0@
0A
19
b0 2
0<
07
b1100 4
b1100 m
b11 1
b11 n
b11 t
b11 &
b11 ,
b11 s
b1110 x
#20000
1S
1J
1W
0I
b1100 $
b1100 3
0;
1E
0\
0]
1U
1N
1O
0G
1@
1A
09
b11 2
1<
0R
1D
17
b1011 4
b1011 m
b100 1
b100 n
b100 t
b100 &
b100 ,
b100 s
b1101 x
